{
    "collection": "@nestjs/schematics",
    "sourceRoot": "apps/main-processor/src",
    "monorepo": true,
    "root": "apps/main-processor",
    "compilerOptions": {
        "webpack": true,
        "tsConfigPath": "apps/main-processor/tsconfig.app.json"
    },
    "projects": {
        "main-processor": {
            "type": "application",
            "root": "apps/main-processor",
            "entryFile": "main",
            "sourceRoot": "apps/main-processor/src",
            "compilerOptions": {
                "tsConfigPath": "apps/main-processor/tsconfig.app.json"
            }
        },
        "api": {
            "type": "application",
            "root": "apps/api",
            "entryFile": "main",
            "sourceRoot": "apps/api/src",
            "compilerOptions": {
                "tsConfigPath": "apps/api/tsconfig.app.json"
            }
        },
        "socket-gateway": {
            "type": "application",
            "root": "apps/socket-gateway",
            "entryFile": "main",
            "sourceRoot": "apps/socket-gateway/src",
            "compilerOptions": {
                "tsConfigPath": "apps/socket-gateway/tsconfig.app.json"
            }
        },
        "cli": {
            "type": "application",
            "root": "apps/cli",
            "entryFile": "console",
            "sourceRoot": "apps/cli/src",
            "compilerOptions": {
                "tsConfigPath": "apps/cli/tsconfig.app.json"
            }
        }
    }
}
